{
    "data": {
        "classname": "DefaultClass",
        "superclassname": " ",
        "comment": "library that allows to load files into an application that run completely in a browser without the need to submit data to a server for processing. With this library the users are able load files into your browser application and process the data in the browser and provide the output to the user, without submitting any data to a server.",
        "reposinfo": {
            "JSCC_type": "CLASS",
            "JSCC_version": "2",
            "UML_editor": "https://niebert.github.io/ClassEditorUML",
            "repository": "https://www.gitlab.com/user/reponame",
            "static": "no",
            "debugheader": "no",
            "require_classes": "yes",
            "author": "User Name",
            "email": "user on GitLab",
            "created": "",
            "modified": "",
            "configcode": "// the configuration code will be used to create some constants",
            "requirelist": []
        },
        "attributes": [
            {
                "visibility": "public",
                "name": "aDoc",
                "init": "null",
                "class": "null",
                "comment": "the attribute stores ..."
            },
            {
                "visibility": "public",
                "name": "aOptions",
                "init": "null",
                "class": "null",
                "comment": "the attribute stores ..."
            },
            {
                "visibility": "public",
                "name": "aFileLoader",
                "init": "{}",
                "class": "object",
                "comment": "the attribute stores ..."
            },
            {
                "visibility": "public",
                "name": "aLoadFileHolder",
                "init": "{\n    \"id\": \"holder4loadfile\",\n    \"dom\": null,\n    \"var4dom\": \"undef_call_var\",\n    \"debug\": false\n}",
                "class": "object",
                "comment": "the attribute stores ..."
            },
            {
                "visibility": "public",
                "name": "defaults_options",
                "init": "{\n    \"id\": \"loadfile_holder_div\",\n    \"dom\": null,\n    \"base64\": false,\n    \"width4thumb\": 150,\n    \"debug\": false\n}",
                "class": "object",
                "comment": "the attribute stores ..."
            },
            {
                "visibility": "public",
                "name": "type2accept",
                "init": "{\n    \"all\": \"*\",\n    \"audio\": \"audio/*\",\n    \"data\": \"*\",\n    \"image\": \"image/*\",\n    \"image_thumb\": \"image/*\",\n    \"json\": \"application/json\",\n    \"html\": \"text/html\",\n    \"text\": \"*\",\n    \"video\": \"video/*\",\n    \"jszip\": \"application/zip\",\n    \"zip\": \"application/zip\"\n}",
                "class": "object",
                "comment": "the attribute stores ..."
            },
            {
                "visibility": "public",
                "name": "type2returntype",
                "init": "{\n    \"all\": \"filehash\",\n    \"audio\": \"filehash\",\n    \"data\": \"filehash\",\n    \"image\": \"dom\",\n    \"image_thumb\": \"dom\",\n    \"json\": \"file\",\n    \"text\": \"file\",\n    \"html\": \"filehash\",\n    \"video\": \"filehash\",\n    \"jszip\": \"filehash\",\n    \"zip\": \"filehash\"\n}",
                "class": "object",
                "comment": "the attribute stores ..."
            },
            {
                "visibility": "public",
                "name": "defaults_loader",
                "init": "{\n    \"filetype\": \"text\",\n    \"id\": \"loader123456789\",\n    \"name\": \"defaultloader\",\n    \"value\": \"Dialog Loader Button\",\n    \"accept\": \"text/*\",\n    \"onchange\": \"console.log('open dialog click on 'defaultloader')\",\n    \"multiple\": true\n}",
                "class": "object",
                "comment": "the attribute stores ..."
            },
            {
                "visibility": "public",
                "name": "aLoaderCount",
                "init": "0",
                "class": "number",
                "comment": "the attribute stores ..."
            }
        ],
        "methods": [
            {
                "visibility": "public",
                "name": "init",
                "parameter": [
                    {
                        "name": "pDoc",
                        "class": " ",
                        "comment": "the parameter provides ..."
                    },
                    {
                        "name": "pOptions",
                        "class": " ",
                        "comment": "the parameter provides ..."
                    }
                ],
                "return": " ",
                "comment": "the method performs ...",
                "code": "\n  // ----Debugging------------------------------------------\n  //  console.log(\"loadfile4dom.js - Call: init(pDoc,pOptions)\");\n  //  alert(\"loadfile4dom.js - Call: init(pDoc,pOptions)\");\n  // ----Create Object/Instance of LoadFile4DOM and call init()----\n  //     var vLoadFile4DOM = new LoadFile4DOM();\n  //     vLoadFile4DOM.init(pDoc,pOptions);\n  // -------------------------------------------------------\n  console.log(\"CALL: init() with options=\"+JSON.stringify(pOptions,null,4));\n  var vOptions = pOptions || {};\n  //  save the reference \"document\" object\n  this.aDoc = pDoc;\n  //  store options provided as parameter in the init-method\n  /*\n  this.defaults = {\n    \"id4loadfile\": \"loadfile_div\",\n    \"dom\": null,\n    \"var4dom\": \"loadfile_div\"+this.getTimeStamp()\n  };\n  */\n  // console.log(\"vOptions=\"+JSON.stringify(vOptions,null,4));\n  // set default options and store options as attribute\n  this.aOptions = this.set_defaults(vOptions,this.defaults_options);\n  console.log(\"this.aOptions=\"+JSON.stringify(this.aOptions,null,4));\n  // Create var4dom that is unique in DOM for calling the instance\n  var var4dom = \"var4dom\" + this.getTimeStamp();\n  this.aLoadFileHolder.var4dom = var4dom;\n  this.aDoc[var4dom] = this;\n\n"
            },
            {
                "visibility": "public",
                "name": "getTimeStamp",
                "parameter": [],
                "return": " ",
                "comment": "the method performs ...",
                "code": "\n  // ----Debugging------------------------------------------\n  //  console.log(\"loadfile4dom.js - Call: getTimeStamp()\");\n  //  alert(\"loadfile4dom.js - Call: getTimeStamp()\");\n  // ----Create Object/Instance of LoadFile4DOM and call getTimeStamp()----\n  //     var vLoadFile4DOM = new LoadFile4DOM();\n  //     vLoadFile4DOM.getTimeStamp();\n  // -------------------------------------------------------\n  //  create a time stamp with a number\n  var now = new Date();\n  var timestamp = this.aLoaderCount + 't' + now.getTime();\n  this.aLoaderCount++;\n  //  return the integer as time in milli seconds since January 1st, 1970 0:00am\n  return timestamp;\n\n"
            },
            {
                "visibility": "public",
                "name": "create_input_tags",
                "parameter": [],
                "return": " ",
                "comment": "the method performs ...",
                "code": "\n  // ----Debugging------------------------------------------\n  // console.log(\"loadfile4dom.js - Call: create()\");\n  //  alert(\"loadfile4dom.js - Call: create()\");\n  // ----Create Object/Instance of LoadFile4DOM and call create()----\n  //     var vLoadFile4DOM = new LoadFile4DOM();\n  //     vLoadFile4DOM.create(pLoaderID);\n  // -------------------------------------------------------\n  //  create a hidden DOM node and append the DOM node to this.aLoadFileHolder\n  var fl = this.aFileLoader;\n  var vLoadFileHolder = this.get_holder();\n  for (var loadid in fl) {\n    console.log(\"CALL: create_input_tags('\"+ loadid +\"')\");\n    if (fl.hasOwnProperty(loadid)) {\n      console.log(\"CALL: create_input_tags('\"+ loadid +\"') exists\");\n      // append the created \"input\" tag to the holder\n      if (vLoadFileHolder) {\n          if (fl[loadid].dom) {\n            console.log(\"CALL: create_input_tags('\" + loadid + \"') for DOM node for input-file tag with ID ['\" + fl[loadid].id + \"'] appended to DOM!\");\n            vLoadFileHolder.appendChild(fl[loadid].dom);\n          } else {\n            console.error(\"ERROR: DOM node for input-file tag with ID ['\" + fl[loadid].id + \"'] was not created with !\");\n          }\n      } else {\n        console.log(\"LoadFile4DOM.create_input_tags():  LoadFile4DOM holder does not exist - no append Loader Dialog ['\" + loadid + \"'] to holder possible\");\n      }\n    }\n  }\n\n"
            },
            {
                "visibility": "public",
                "name": "create",
                "parameter": [],
                "return": " ",
                "comment": "the method performs ...",
                "code": "\n\n  // ----Debugging------------------------------------------\n  //  console.log(\"loadfile4dom.js - Call: create()\");\n  //  alert(\"loadfile4dom.js - Call: create()\");\n  // ----Create Object/Instance of LoadFile4DOM and call create()----\n  //     var vLoadFile4DOM = new LoadFile4DOM();\n  //     vLoadFile4DOM.create(pLoaderID);\n  // -------------------------------------------------------\n  //  create a hidden DOM node and append the DOM node to this.aLoadFileHolder\n  if (this.aLoadFileHolder) {\n    if (this.aLoadFileHolder.dom) {\n      console.log(\"LoadFile4DOM.create()-Call: aLoadFileHolder.dom exists\");\n    } else {\n      console.log(\"LoadFile4DOM.create()-Call: Create DIV node in DOM! this.aOptions.debug=\"+this.aOptions.debug);\n      this.create_holder();\n    }\n  } else {\n    console.log(\"CALL: LoadFile4DOM.create(): Create DIV node for LoadFile input-tagss: LoadFile4DOM.create_holder() because aLoadFileHolder is not defined!\");\n    this.create_holder();\n  }\n  this.create_input_tags();\n\n"
            },
            {
                "visibility": "public",
                "name": "get_holder",
                "parameter": [],
                "return": " ",
                "comment": "the method performs ...",
                "code": "\n\n  var vHolder = null;\n  if (this.aLoadFileHolder.hasOwnProperty(\"dom\")) {\n    vHolder = this.aLoadFileHolder.dom;\n    if (vHolder) {\n      console.log(\"CALL: get_holder(): aLoadFileHolder.dom exists with ID=[\"+this.aLoadFileHolder.id+\"]\");\n    } else {var vID = this.aOptions.id4loadfile;\n    //  vLoadFileHolder refers to hidden DIV-node that is used for adding the LoadFile instances.\n      vHolder = this.aDoc.getElementById(vID);\n      if (vHolder) {\n        console.log(\"CALL: get_holder(): DOM node for Holder with aLoadFileHolder.id exists with ID=[\"+this.aLoadFileHolder.ide+\"] \");\n      } else {\n        console.log(\"CALL: get_holder(): DOM node for Holder with aLoadFileHolder.id does not exist with ID=[\"+this.aLoadFileHolder.ide+\"] - Holder generation failed by LoadFile4DOM.create_holder()\");\n        vHolder = null;\n      }\n    }\n  }\n  return vHolder;\n\n"
            },
            {
                "visibility": "public",
                "name": "create_load_dialog",
                "parameter": [
                    {
                        "name": "pOptions",
                        "class": " ",
                        "comment": "the parameter provides ..."
                    }
                ],
                "return": " ",
                "comment": "the method performs ...",
                "code": "\n  // ----Debugging------------------------------------------\n  //  alert(\"loadfile4dom.js - Call: create_load_dialog(pID)\");\n  // ----Create Object/Instance of LoadFile4DOM and call create_load_dialog()----\n  //     var vLoadFile4DOM = new LoadFile4DOM();\n  //     vLoadFile4DOM.create_load_dialog(pID);\n  // -------------------------------------------------------\n  //  create a node <input type=\"file\" id=\"myloaderid\" name=\"myloader\" value=\"Dialog myloaderid\" onchange=\"vJSONEditor.loadJSON(this.id)\"/>\n  var vID = pOptions.name; // use pOptions.name as ID because it has no time stamp at the end.\n  console.log(\"loadfile4dom.js - Call: create_load_dialog('\"+vID+\"')\"+\"\\nOptions=\"+JSON.stringify(pOptions,null,4));\n  var doc = this.aDoc;\n  // create the file-input element\n  var vInput = doc.createElement(\"input\");\n  //\n  var vAttDef = (pOptions || this.get_input_attributes(vID));\n  // if multiple files can be loaded then the \"name\" attribute needs array brackets for multiple files\n  if (vAttDef.multiple === true) {\n    vAttDef.name += \"[]\";\n  }\n  // now add all attributes to the created \"input\" tag.\n  var a = null;\n  for (var key in vAttDef) {\n    if ((key != \"multiple\") && (key != \"onload\")) {\n      if (vAttDef.hasOwnProperty(key)) {\n            console.log(\"create_load_dialog() ['\"+vID+\"'].\" + key +  \"=\"+vAttDef[key]);\n            a = doc.createAttribute(key);\n            a.nodeValue = vAttDef[key];\n            vInput.setAttributeNode(a);\n      }\n    }\n  }\n  // if we allow multiple file select, add the attribute \"multiple\" to the input tag\n  if (vAttDef.multiple === true) {\n    a = doc.createAttribute('multiple');\n    a.nodeValue = \"multiple\";\n    vInput.setAttributeNode(a);\n  }\n  var vNewLoader = {\n    \"dom\": vInput, //  the element of the <input ...> tag in DOM (Document Object Model)\n    \"onload\": pOptions.onload\n  };\n  vNewLoader = this.set_defaults(vNewLoader,vAttDef);\n  console.log('vNewLoader=' + JSON.stringify(vNewLoader,null,4));\n\n  this.aFileLoader[vID] = vNewLoader;\n  //console.log('DOM vAttDef:\\n' + JSON.stringify(vAttDef,null,4));\n  //console.log('DOM vInput:\\n' + vInput.outerHTML);\n\n\n"
            },
            {
                "visibility": "public",
                "name": "create_holder",
                "parameter": [],
                "return": " ",
                "comment": "the method performs ...",
                "code": "\n  // ----Debugging------------------------------------------\n  //  console.log(\"loadfile4dom.js - Call: create_holder()\");\n  //  alert(\"loadfile4dom.js - Call: create_holder()\");\n  // ----Create Object/Instance of LoadFile4DOM and call create_holder()----\n  //     var vLoadFile4DOM = new LoadFile4DOM();\n  //     vLoadFile4DOM.create_holder();\n  // -------------------------------------------------------\n  //  this.aOptions.id4loadfile contains the ID of the DIV tag of the LoadFile holder.\n  //  get the LoadFile holder ID from Options that was defined in the init()-method\n  var vHolderID = this.aLoadFileHolder.id || \"holder4loadfile\";\n  this.aLoadFileHolder.dom =  null;\n  //this.aLoadFileHolder.var4dom = \"onload4inputfile\" + this.getTimeStamp();\n  var doc = this.aDoc;\n  var vBody = doc.getElementsByTagName(\"body\")[0];\n  if (vBody) {\n    console.log(\"CALL: create_holder() document.body exists!\");\n  } else {\n    console.log(\"WARNING: create_holder() document.body does not exist!\");\n  }\n  if (this.aOptions.hasOwnProperty(\"id4loadfile\")) {\n      console.log(\"Options contain a holder ID [\"+this.aOptions.id4loadfile+\"]\");\n      vHolderID = this.aOptions.id4loadfile;\n  } else {\n    // appending a time stamp make the id unique, e.g. 'holder4loadfile'\n    // so that it is not in conflict with existing ids in the HTML DOM tree\n    vHolderID += this.getTimeStamp();\n    console.log(\"Use default holder name of DIV tag [\"+vHolderID+\"]\");\n  }\n  // check if DIV element for holder exists\n  this.aLoadFileHolder.id = vHolderID;\n  this.aLoadFileHolder.dom = doc.getElementById(vHolderID);\n  if (this.aLoadFileHolder.dom) {\n    console.log(\"Load Dialog holder DIV tag with ID=[\"+vHolderID+\"] exists\");\n  } else {\n    var lf_holder = doc.createElement('div');\n    //  create the \"id\" attribute\n    var att = doc.createAttribute(\"id\");\n    //  create a unique ID for the DIV element\n    att.nodeValue = vHolderID;\n    //  append the DIV holder with the id id4loadfile\n    lf_holder.setAttributeNode(att);\n    // add \"var4dom\" variable to DIV tag\n    var attvar4dom = doc.createAttribute(\"var4dom\");\n    attvar4dom.nodeValue = this.aLoadFileHolder.var4dom;\n    lf_holder.setAttributeNode(attvar4dom);\n    //--- Hide Holder ---\n    if (this.aOptions.debug === false) {\n      // Hide Holder \"style=\"display:none\" if aOptions.debug=false\n      var atthide = doc.createAttribute(\"style\");\n      atthide.nodeValue = \"display:none\";\n      lf_holder.setAttributeNode(atthide);\n    } else {\n      console.log(\"CALL create_holder(): Holder and input-file tags are visible browser\");\n    }\n    // --- Append Holder to body in DOM ---\n    // DOM Node create: <div id=\"id4loadfile872934878924\"></div>\n    //  append the LoadFileHolder at the document.body\n    vBody.appendChild(lf_holder);\n    // store reference to holder node\n    this.aLoadFileHolder.dom = lf_holder;\n    console.log(\"CALL create_holder(): LoadFile holder created as DIV element with ID=[\"+vHolderID+\"]\");\n    //setTimeout(this)\n  };\n  return this.aLoadFileHolder.dom;\n\n"
            },
            {
                "visibility": "public",
                "name": "open_dialog",
                "parameter": [
                    {
                        "name": "pID",
                        "class": " ",
                        "comment": "the parameter provides ..."
                    }
                ],
                "return": " ",
                "comment": "the method performs ...",
                "code": "\n  // ----Debugging------------------------------------------\n  //  console.log(\"loadfile4dom.js - Call: open_dialog(pID)\");\n  //  alert(\"loadfile4dom.js - Call: open_dialog(pID)\");\n  // ----Create Object/Instance of LoadFile4DOM and call open_dialog()----\n  //     var vLoadFile4DOM = new LoadFile4DOM();\n  //     vLoadFile4DOM.open_dialog(pID);\n  // -------------------------------------------------------\n  //  get DOM id of the upload <input ...> tag with pID in this.aFileHolder\n  var fl = this.aFileLoader;\n  if (fl.hasOwnProperty(pID)) {\n      console.log(\"CLICK: File Loader with ID=[\"+pID+\"] will open the file dialog of browser\");\n      var vLoaderDOM = fl[pID].dom;\n      //  trigger a onclick event in the hidden Upload Button of the browser to open Load Dialog\n      vLoaderDOM.click();\n  } else {\n      console.error(\"ERROR: File Loader with ID=[\"+pID+\"] is not defined\");\n  }\n"
            },
            {
                "visibility": "public",
                "name": "set_defaults",
                "parameter": [
                    {
                        "name": "options",
                        "class": " ",
                        "comment": "the parameter provides ..."
                    },
                    {
                        "name": " defaults",
                        "class": " ",
                        "comment": "the parameter provides ..."
                    }
                ],
                "return": " ",
                "comment": "the method performs ...",
                "code": "\n\n  var obj = {};\n  defaults = defaults || {};\n  for (var d in defaults) {\n    if (defaults.hasOwnProperty(d)) {\n      obj[d] = defaults[d];\n    }\n  }\n  for (var k in options) {\n    if (options.hasOwnProperty(k)) {\n      obj[k] = options[k];\n    }\n  }\n  return obj;\n\n"
            },
            {
                "visibility": "public",
                "name": "overwrite_options",
                "parameter": [
                    {
                        "name": "options",
                        "class": " ",
                        "comment": "the parameter provides ..."
                    },
                    {
                        "name": " overwrite_opts",
                        "class": " ",
                        "comment": "the parameter provides ..."
                    }
                ],
                "return": " ",
                "comment": "the method performs ...",
                "code": "\n\n  var obj = {};\n  for (var k in options) {\n    if (options.hasOwnProperty(k)) {\n      obj[k] = options[k];\n    }\n  }\n  for (var d in overwrite_opts) {\n    if (overwrite_opts.hasOwnProperty(d)) {\n      obj[d] = overwrite_opts[d];\n    }\n  }\n  return obj;\n\n"
            },
            {
                "visibility": "public",
                "name": "get_loader_options",
                "parameter": [
                    {
                        "name": "pID",
                        "class": " ",
                        "comment": "the parameter provides ..."
                    },
                    {
                        "name": "pFileType",
                        "class": " ",
                        "comment": "the parameter provides ..."
                    },
                    {
                        "name": "pOptions",
                        "class": " ",
                        "comment": "the parameter provides ..."
                    }
                ],
                "return": " ",
                "comment": "the method performs ...",
                "code": "\n  var vUniqueID = pID + this.getTimeStamp(); //  has to be uniqued in the DOM\n  var vFileType = pFileType || this.defaults_loader.filetype;\n  var vOptions = {\n    \"type\": \"file\",\n    \"filetype\": vFileType,\n    \"id\":vUniqueID,\n    \"name\": pID,\n    \"value\": \"Dialog \"+pID,\n    \"accept\": this.type2accept[vFileType],\n    \"returntype\": (this.type2returntype[vFileType] || \"filehash\"),\n    //\"onload\":\"console.log('open dialog click '\"+pID+\"')\",\n    \"onchange\": this.aLoadFileHolder.var4dom + \".handle_file('\"+pID+\"')\",\n  };\n  // set defaults in options if not set by vOptions\n  vOptions = this.set_defaults(vOptions,this.defaults_loader);\n  vOptions = this.overwrite_options(vOptions,pOptions);\n  // return the genrated options\n  return vOptions;\n\n"
            },
            {
                "visibility": "public",
                "name": "get_input_attributes",
                "parameter": [
                    {
                        "name": "pID",
                        "class": " ",
                        "comment": "the parameter provides ..."
                    },
                    {
                        "name": "pFileType",
                        "class": " ",
                        "comment": "the parameter provides ..."
                    }
                ],
                "return": " ",
                "comment": "the method performs ...",
                "code": "\n\n  console.log(\"get_input_attributes('\"+pID+\"')\");\n  var vUniqueID = pID + this.getTimeStamp(); //  has to be uniqued in the DOM\n  var vLoader = null;\n  var vFileType = pFileType || \"all\";\n  // the following hash contains all the input attributes\n  if (this.aFileLoader.hasOwnProperty(pID)) {\n    vLoader = this.aFileLoader[pID];\n  } else {\n    console.error(\"CALL: get_input_attributes() - this.aFileLoader['\" + pID + \"'] does not exist! File handler does not exist\");\n  }\n  var vAtts = {\n    \"type\": \"file\",\n    \"filetype\": vFileType,\n    \"id\":vUniqueID,\n    \"name\": pID,\n    \"value\": \"Dialog \"+pID,\n    \"accept\": this.type2accept[vType],\n    \"returntype\": (this.type2returntype[vFileType] || \"filehash\"),\n    \"onchange\": this.aLoadFileHolder.var4dom + \".handle_file('\"+pID+\"')\",\n    \"multiple\": this.defaults_loader.multiple\n  };\n  return vAtts;\n"
            },
            {
                "visibility": "public",
                "name": "error_file_type",
                "parameter": [
                    {
                        "name": "pLoader",
                        "class": " ",
                        "comment": "the parameter provides ..."
                    },
                    {
                        "name": "pFileToLoad",
                        "class": " ",
                        "comment": "the parameter provides ..."
                    }
                ],
                "return": " ",
                "comment": "the method performs ...",
                "code": "\n\n  console.log(\"handle_\"+pLoader.filetype+\"() LoaderID='\"+pLoader.id+\"' FileType='\"+pLoader.filetype+\"' FileName='\" + ((pFileToLoad.name) || \"?\") + \"'\");\n  var mime_type = this.type2accept[pLoader.filetype] || \"*\";\n      var vErrMsg = \"\";\n      var vSep = \"\";\n      //--- Check MIME Type ----------\n      if (mime_type === \"*\") {\n        console.log(\"All MIME-types allowed by loader ['\" + pLoader.id + \"'] - Filetype='\" + pLoader.filetype + \"' MIME-Type of File='\" + pFileToLoad.type + \"'\");\n      } else {\n        //--- Check if MIME Type matches with file type -----\n        if (!pFileToLoad.type.match(mime_type)) {\n          // early escape function if file type is not an image\n          vErrMsg += vSep + \"File Type '\" + pFileToLoad.type + \"' does not match with the mime '\" + mime_type + \"'\";\n          vSep = \"\\n\";\n        }\n      }\n      //--- Check if file extension matches with extension of loaded file\n      var fn = pFileToLoad.name;\n      var ext = \"\";\n      if (pLoader.hasOwnProperty(\"file_extension\")) {\n        ext = pLoader.file_extension;\n        var found = fn.indexOf(ext);\n        // myfile.txt - fn.length=10 - found=6 for file_extension='.txt'\n        if ((found > 0) &&  (fn.length - ext.length - 1 >= found)) {\n          console.log(\"Filename '\" + fn + \"' has extension '\" + ext + \"'!'\");\n        } else {\n          vErrMsg += vSep + \"The filename '\" + fn + \"' does not have the extension '\" + ext + \"'\";\n          vSep = \"\\n\";\n        }\n      }\n      if (vErrMsg === \"\") {\n        vErrMsg = null;\n      } else {\n        console.error(vErrMsg);\n        // ERROR:  send error to onload handler,\n        // i.e. call the onload() function with an Error Message\n        pLoader.onload(pFileToLoad,vErrMsg);\n      }\n      return vErrMsg;\n\n"
            },
            {
                "visibility": "public",
                "name": "data_url2base64",
                "parameter": [
                    {
                        "name": "uri",
                        "class": " ",
                        "comment": "the parameter provides ..."
                    }
                ],
                "return": " ",
                "comment": "the method performs ...",
                "code": "\n  console.log(\"CALL: data_url2base64(uri) uri='\" +uri.substr(0,20)+ \"...'\");\n  var idx = uri.indexOf('base64,') + 'base64,'.length; // or = 28 if you're sure about the prefix\n  var content = uri.substring(idx);\n  // use e.g. for zip file\n  // zip.file('a.pdf', content, {base64: true});\n  return content;\n"
            },
            {
                "visibility": "public",
                "name": "handle_return_type",
                "parameter": [
                    {
                        "name": "pLoader",
                        "class": " ",
                        "comment": "the parameter provides ..."
                    },
                    {
                        "name": "pFile",
                        "class": " ",
                        "comment": "the parameter provides ..."
                    },
                    {
                        "name": "pFileToLoad",
                        "class": " ",
                        "comment": "the parameter provides ..."
                    }
                ],
                "return": " ",
                "comment": "the method performs ...",
                "code": "\n  console.log(\"handle_return_type('\" + pFileToLoad.name + \"')\");\n  if (!pFile) {\n    console.error(\"ERROR: no File provided to handle_return_type(...,pFile,...) in pFile\");\n  } else {\n    // send the file vFile to the defined file handler of the FileLoader\n    if (pLoader.hasOwnProperty(\"returntype\"))  {\n      console.log(\"handle_return_type('\" + pFileToLoad.name + \"') returntype='\" + pLoader.returntype + \"'\");\n      switch (pLoader.returntype) {\n        case \"filehash\":\n          pLoader.onload({\n            \"name\": pFileToLoad.name,\n            \"file\": pFile,\n            \"mime_type\": pFileToLoad.type\n          });\n        break;\n        case \"file\":\n          pLoader.onload(pFile);\n        break;\n        default:\n          pLoader.onload(pFile);\n      }\n    } else {\n      console.log(\"handle_return_type('\" + pFileToLoad.name + \"') undefined returntype - use 'filehash' as return type\");\n      pLoader.onload({\n        \"name\": pFileToLoad.name,\n        \"file\": pFile,\n        \"mime_type\": pFileToLoad.type\n      });\n    }\n  }\n"
            },
            {
                "visibility": "public",
                "name": "handle_text",
                "parameter": [
                    {
                        "name": "pLoader",
                        "class": " ",
                        "comment": "the parameter provides ..."
                    },
                    {
                        "name": "pFileReader",
                        "class": " ",
                        "comment": "the parameter provides ..."
                    },
                    {
                        "name": "pFileToLoad",
                        "class": " ",
                        "comment": "the parameter provides ..."
                    }
                ],
                "return": " ",
                "comment": "the method performs ...",
                "code": "\n  var vThis = this; // map \"this\" to \"vThis\" for callback inside pFileReader\n  if (!this.error_file_type(pLoader,pFileToLoad)) {\n    pFileReader.onload = function(fileLoadedEvent){\n      // handle file onload event of the FileReader instance\n      var vFile = fileLoadedEvent.target.result;\n      // check if the user wants to have just the file\n      // or a filehash with more information about the file e.g. mime_type\n      vThis.handle_return_type(pLoader,vFile,pFileToLoad);\n    };\n    var vEncoding = \"UTF-8\";\n    if (pLoader.hasOwnProperty(\"encoding\")) {\n      vEncoding = pLoader.encoding;\n    }\n    pFileReader.readAsText(pFileToLoad, vEncoding);\n  }\n\n"
            },
            {
                "visibility": "public",
                "name": "handle_json",
                "parameter": [
                    {
                        "name": "pLoader",
                        "class": " ",
                        "comment": "the parameter provides ..."
                    },
                    {
                        "name": "pFileReader",
                        "class": " ",
                        "comment": "the parameter provides ..."
                    },
                    {
                        "name": "pFileToLoad",
                        "class": " ",
                        "comment": "the parameter provides ..."
                    }
                ],
                "return": " ",
                "comment": "the method performs ...",
                "code": "\n  var vThis = this; // map \"this\" to \"vThis\" for callback inside pFileReader\n  if (pLoader) {\n      console.log(\"CALL: handle_json('\" + pLoader.id + \"','\" + pLoader.filetype + \"')\");\n      if (!this.error_file_type(pLoader,pFileToLoad)) {\n        pFileReader.onload = function(fileLoadedEvent){\n          var vFile = fileLoadedEvent.target.result;\n          // send the file vFile to the defined file handler of the FileLoader\n          var vJSON = null;\n          // Parse JSON and check if syntax is valid.\n          // console.log(\"handle_json() Loaded File:\\n\"+vFile);\n          try {\n              vFile = vFile + \"\";\n              vJSON = JSON.parse(vFile);\n          } catch (err) {\n              vJSON = null; // Init with an empty class\n              console.error(\"ERROR: onload handler with errors - \"+err); // error in the above string (in this case, yes)!\n              // call onload handler with a ppopulated error err,\n              pLoader.onload(vJSON,err);\n              return; // early exit function\n          }\n          // check if the user wants to have just the file\n          // or a filehash with more information about the file e.g. mime_type\n          vThis.handle_return_type(pLoader,vFile,pFileToLoad);\n        };\n        var vEncoding = \"UTF-8\";\n        if (pLoader.hasOwnProperty(\"encoding\")) {\n          vEncoding = pLoader.encoding;\n        }\n        pFileReader.readAsText(pFileToLoad, vEncoding);\n      }\n    } else {\n      console.error(\"CALL: handle_json() pLoader does not exist!\");\n    }\n"
            },
            {
                "visibility": "public",
                "name": "handle_image",
                "parameter": [
                    {
                        "name": "pLoader",
                        "class": " ",
                        "comment": "the parameter provides ..."
                    },
                    {
                        "name": "pFileReader",
                        "class": " ",
                        "comment": "the parameter provides ..."
                    },
                    {
                        "name": "pFileToLoad",
                        "class": " ",
                        "comment": "the parameter provides ..."
                    }
                ],
                "return": " ",
                "comment": "the method performs ...",
                "code": "\n  var vThis = this; // map \"this\" to \"vThis\" for callback inside pFileReader\n  if (!this.error_file_type(pLoader,pFileToLoad)) {\n    pFileReader.onload = function(event){\n      if (pLoader.hasOwnProperty(\"returntype\")) {\n        // handle the return types\n        switch (pLoader.returntype) {\n          case \"img\":\n            var img = new Image();\n            img.onload = function(){\n              var vWidth = parseInt(img.width);\n              var vHeight = parseInt(img.height);\n              var vScale = 1.0;\n              // proportional scale\n              if (pLoader.hasOwnProperty(\"width\")) {\n                vWidth = parseInt(pLoader.width);\n                vScale = parseInt(pLoader.width)/parseInt(img.width);\n                vHeight = parseInt(parseInt(img.height) * vScale);\n              }\n              if (pLoader.hasOwnProperty(\"height\")) {\n                vHeight = parseInt(pLoader.height);\n                vScale = parseInt(pLoader.height)/parseInt(img.height);\n                vWidth = parseInt(parseInt(img.width) * vScale);\n              }\n              canvas.width = vWidth;\n              canvas.height = vHeight;\n              ctx.drawImage(img,0,0);\n            };\n            img.src = event.target.result;\n            // send the image file \"img\" to the defined file handler of the FileLoader\n            var data = {\n              \"name\": pFileToLoad.name,\n              \"file\": vThis.data_url2base64(event.target.result),\n              \"mime_type\": pFileToLoad.type,\n              \"img\": img\n            };\n            pLoader.onload(data);\n          break;\n          default:\n            // handle other default return types\n            var vFile = vThis.data_url2base64(event.target.result);\n            vThis.handle_return_type(pLoader,vFile,pFileToLoad);\n        }\n      } else {\n        // without \"returntype\" return the file\n        pLoader.onload(event.target.result);\n      }\n    };\n    pFileReader.readAsDataURL(pFileToLoad);\n  }\n\n"
            },
            {
                "visibility": "public",
                "name": "handle_image_thumb",
                "parameter": [
                    {
                        "name": "pLoader",
                        "class": " ",
                        "comment": "the parameter provides ..."
                    },
                    {
                        "name": "pFileReader",
                        "class": " ",
                        "comment": "the parameter provides ..."
                    },
                    {
                        "name": "pFileToLoad",
                        "class": " ",
                        "comment": "the parameter provides ..."
                    }
                ],
                "return": " ",
                "comment": "the method performs ...",
                "code": "\n\n  var vThis = this; // map \"this\" to \"vThis\" for callback inside pFileReader\n  if (!this.error_file_type(pLoader,pFileToLoad)) {\n    pFileReader.onload = function(event){\n      if (pLoader.hasOwnProperty(\"returntype\")) {\n        // handle the return types\n        var width_missing = false;\n        var height_missing = false;\n        switch (pLoader.returntype) {\n          case \"tag\":\n            var html = '<img class=\"thumb\" ';\n            if (pLoader.hasOwnProperty(\"width\")) {\n                html += 'width=\"' + pLoader.width +'\" ';\n            } else {\n              width_missing = true;\n            }\n            if (pLoader.hasOwnProperty(\"height\")) {\n                html += 'height=\"' + pLoader.height +'\" ';\n            } else {\n              height_missing = true;\n            }\n            if (width_missing && height_missing) {\n              html += 'width=\"' + vThis.aOptions.width4thumb +'\" ';\n            }\n            var vFilename = pFileToLoad.name;\n            vFilename = vFilename.replace(/[^A-Za-z0-9 _\\-\\.]/g,\"_\");\n            html += 'src=\"' + event.target.result +'\" ';\n            html += 'title=\"' + vFilename + '\"/>';\n            // send the image file \"img\" to the defined file handler of the FileLoader\n            var data = {\n              \"name\": pFileToLoad.name,\n              \"file\": vThis.data_url2base64(event.target.result),\n              \"mime_type\": pFileToLoad.type,\n              \"tag\": html\n            };\n            pLoader.onload(data);\n          break;\n          default:\n            // handle other default return types\n            var vFile = vThis.data_url2base64(event.target.result);\n            vThis.handle_return_type(pLoader,vFile,pFileToLoad);\n        }\n      } else {\n        // without \"returntype\" return just the file\n        pLoader.onload(event.target.result);\n      }\n    };\n    pFileReader.readAsDataURL(pFileToLoad);\n  }\n\n"
            },
            {
                "visibility": "public",
                "name": "is_textfile",
                "parameter": [
                    {
                        "name": "pFileToLoad",
                        "class": " ",
                        "comment": "the parameter provides ..."
                    }
                ],
                "return": " ",
                "comment": "the method performs ...",
                "code": "\n  var vMSG = \"CALL: LoadFile4DOM.is_textfile() - File '\" + pFileToLoad.name + \"' is a text file with MIME-type '\" + pFileToLoad.type + \"'. \";\n  var vBoolean = false;\n  if (pFileToLoad.type.match(\"text/*\")) {\n    // pFileToLoad is a textfile with the MIME type starting with \"text/\"\n    console.log(vMSG);\n    vBoolean = true;\n  }\n  if (pFileToLoad.type.match(\"application/json\")) {\n    // JSON file is also a text file but MIME type does not start with text\n    console.log(vMSG + \"JSON file was not parsed with JSON.parse() - so the string could contain syntax errors!\");\n    vBoolean = true;\n  }\n  return vBoolean;\n"
            },
            {
                "visibility": "public",
                "name": "handle_data",
                "parameter": [
                    {
                        "name": "pLoader",
                        "class": " ",
                        "comment": "the parameter provides ..."
                    },
                    {
                        "name": "pFileReader",
                        "class": " ",
                        "comment": "the parameter provides ..."
                    },
                    {
                        "name": "pFileToLoad",
                        "class": " ",
                        "comment": "the parameter provides ..."
                    }
                ],
                "return": " ",
                "comment": "the method performs ...",
                "code": "\n\n  var vThis = this; // map \"this\" to \"vThis\" for callback inside pFileReader\n  // check if file type has no error according to MIME type and extension\n  if (!this.error_file_type(pLoader,pFileToLoad)) {\n          pFileReader.onload = function(fileLoadedEvent){\n            // handle file onload event of the FileReader instance\n            var vFile = fileLoadedEvent.target.result;\n            // check if the user wants to have just the file\n            // or a filehash with more information about the file e.g. mime_type\n            // remove mime type from data URL e.g. \"data:application/pdf;base64, ...\"\n            vFile = vThis.data_url2base64(vFile);\n            vThis.handle_return_type(pLoader,vFile,pFileToLoad);\n          };\n          pFileReader.readAsDataURL(pFileToLoad);\n          //pFileReader.readAsBinaryString(pFileToLoad);\n  }\n\n"
            },
            {
                "visibility": "public",
                "name": "handle_audio",
                "parameter": [
                    {
                        "name": "pLoader",
                        "class": " ",
                        "comment": "the parameter provides ..."
                    },
                    {
                        "name": "pFileReader",
                        "class": " ",
                        "comment": "the parameter provides ..."
                    },
                    {
                        "name": "pFileToLoad",
                        "class": " ",
                        "comment": "the parameter provides ..."
                    }
                ],
                "return": " ",
                "comment": "the method performs ...",
                "code": "\n\n  var vThis = this; // map \"this\" to \"vThis\" for callback inside pFileReader\n  if (!this.error_file_type(pLoader,pFileToLoad)) {\n          pFileReader.onload = function(fileLoadedEvent){\n            // handle file onload event of the FileReader instance\n            var vFile = fileLoadedEvent.target.result;\n            // check if the user wants to have just the file\n            // or a filehash with more information about the file e.g. mime_type\n            vFile = vThis.data_url2base64(vFile);\n            // removed mime type from data URL e.g. \"data:application/pdf;base64, ...\"\n            vThis.handle_return_type(pLoader,vFile,pFileToLoad);\n          };\n          pFileReader.readAsDataURL(pFileToLoad);\n  }\n\n"
            },
            {
                "visibility": "public",
                "name": "handle_video",
                "parameter": [
                    {
                        "name": "pLoader",
                        "class": " ",
                        "comment": "the parameter provides ..."
                    },
                    {
                        "name": "pFileReader",
                        "class": " ",
                        "comment": "the parameter provides ..."
                    },
                    {
                        "name": "pFileToLoad",
                        "class": " ",
                        "comment": "the parameter provides ..."
                    }
                ],
                "return": " ",
                "comment": "the method performs ...",
                "code": "\n\n  var vThis = this; // map \"this\" to \"vThis\" for callback inside pFileReader\n  if (!this.error_file_type(pLoader,pFileToLoad)) {\n          pFileReader.onload = function(fileLoadedEvent){\n            // handle file onload event of the FileReader instance\n            var vFile = fileLoadedEvent.target.result;\n            // check if the user wants to have just the file\n            // or a filehash with more information about the file e.g. MIME type\n            vFile = vThis.data_url2base64(vFile);\n            // removed mime type from data URL e.g. \"data:application/pdf;base64, ...\"\n            vThis.handle_return_type(pLoader,vFile,pFileToLoad);\n          };\n          pFileReader.readAsDataURL(pFileToLoad);\n  }\n\n"
            },
            {
                "visibility": "public",
                "name": "handle_zip",
                "parameter": [
                    {
                        "name": "pLoader",
                        "class": " ",
                        "comment": "the parameter provides ..."
                    },
                    {
                        "name": "pFileReader",
                        "class": " ",
                        "comment": "the parameter provides ..."
                    },
                    {
                        "name": "pFileToLoad",
                        "class": " ",
                        "comment": "the parameter provides ..."
                    }
                ],
                "return": " ",
                "comment": "the method performs ...",
                "code": "\n\n  var vThis = this; // map \"this\" to \"vThis\" for callback inside pFileReader\n  var vZIP = null;\n  if (!this.error_file_type(pLoader,pFileToLoad)) {\n          pFileReader.onload = function(fileLoadedEvent){\n            // handle file onload event of the FileReader instance\n            var vFile = fileLoadedEvent.target.result;\n            // check if the user wants to have just the file\n            // or a filehash with more information about the file e.g. mime_type\n            /*\n            if (JSZip) {\n              console.log(\"JSZip exists return a JSZip instance\");\n              vZIP = new JSZip();\n              vZIP.loadAsync(vFile,{\"base64\":false}).then(function (zip) {\n                zip.forEach(function (relativePath, file){\n                    console.log(\"File in ZIP: \", relativePath);\n                    vNode.innerHTML = vNode.innerHTML + \"<li>\" + relativePath + \"</li>\";\n                });\n              });\n\n            } else {\n              console.log(\"JSZip does not exist, return a base64 string\");\n              vZIP = vThis.data_url2base64(vFile);\n              vThis.handle_return_type(pLoader,vZIP,pFileToLoad);\n            }\n            */\n            vZIP = vThis.data_url2base64(vFile);\n            vThis.handle_return_type(pLoader,vZIP,pFileToLoad);\n            // removed mime type from data URL e.g. \"data:application/pdf;base64, ...\"\n          };\n          pFileReader.readAsDataURL(pFileToLoad);\n  }\n\n"
            },
            {
                "visibility": "public",
                "name": "handle_jszip",
                "parameter": [
                    {
                        "name": "pLoader",
                        "class": " ",
                        "comment": "the parameter provides ..."
                    },
                    {
                        "name": "pFileReader",
                        "class": " ",
                        "comment": "the parameter provides ..."
                    },
                    {
                        "name": "pFileToLoad",
                        "class": " ",
                        "comment": "the parameter provides ..."
                    }
                ],
                "return": " ",
                "comment": "the method performs ...",
                "code": "\n\n  var vThis = this; // map \"this\" to \"vThis\" for callback inside pFileReader\n  var vZIP = null;\n  if (!this.error_file_type(pLoader,pFileToLoad)) {\n          pFileReader.onload = function(fileLoadedEvent){\n            // handle file onload event of the FileReader instance\n            var vFile = fileLoadedEvent.target.result;\n            // check if the user wants to have just the file\n            // or a filehash with more information about the file e.g. mime_type\n            /*\n            if (JSZip) {\n              console.log(\"JSZip exists return a JSZip instance\");\n              vZIP = new JSZip();\n              vZIP.loadAsync(vFile,{\"base64\":false}).then(function (zip) {\n                zip.forEach(function (relativePath, file){\n                    console.log(\"File in ZIP: \", relativePath);\n                    vNode.innerHTML = vNode.innerHTML + \"<li>\" + relativePath + \"</li>\";\n                });\n              });\n\n            } else {\n              console.log(\"JSZip does not exist, return a base64 string\");\n              vZIP = vThis.data_url2base64(vFile);\n              vThis.handle_return_type(pLoader,vZIP,pFileToLoad);\n            }\n            */\n            vZIP = vThis.data_url2base64(vFile);\n            vThis.handle_return_type(pLoader,vZIP,pFileToLoad);\n            // removed mime type from data URL e.g. \"data:application/pdf;base64, ...\"\n          };\n          pFileReader.readAsDataURL(pFileToLoad);\n  }\n\n"
            },
            {
                "visibility": "public",
                "name": "handle_file_type",
                "parameter": [
                    {
                        "name": "pLoader",
                        "class": " ",
                        "comment": "the parameter provides ..."
                    },
                    {
                        "name": "pFileReader",
                        "class": " ",
                        "comment": "the parameter provides ..."
                    },
                    {
                        "name": "pFileToLoad",
                        "class": " ",
                        "comment": "the parameter provides ..."
                    }
                ],
                "return": " ",
                "comment": "the method performs ...",
                "code": "\n\n  console.log(\"CALL: handle_file_type('\" + pLoader.id + \"','\" + pLoader.filetype + \"')\");\n  switch (pLoader.filetype) {\n    case \"all\":\n      // return binary of arbitray loaded files with returntype=\"alle\"\n      this.handle_data(pLoader,pFileReader,pFileToLoad);\n    break;\n    case \"text\":\n      // return just the string of the text file with returntype=\"file\"\n      this.handle_text(pLoader,pFileReader,pFileToLoad);\n    break;\n    case \"json\":\n      // returns a parsed JSON with returntype=\"file\"\n      this.handle_json(pLoader,pFileReader,pFileToLoad);\n    break;\n    case \"image\":\n      this.handle_image(pLoader,pFileReader,pFileToLoad);\n    break;\n    case \"image_thumb\":\n      this.handle_image_thumb(pLoader,pFileReader,pFileToLoad);\n    break;\n    case \"audio\":\n      this.handle_audio(pLoader,pFileReader,pFileToLoad);\n    break;\n    case \"video\":\n      this.handle_audio(pLoader,pFileReader,pFileToLoad);\n    break;\n    case \"zip\":\n      // returns a filehash with a base64 encoded string of the loaded zip\n      this.handle_zip(pLoader,pFileReader,pFileToLoad);\n    break;\n    case \"jszip\":\n      // returns a JSZip instance populated with the loaded zip\n      this.handle_jszip(pLoader,pFileReader,pFileToLoad);\n    break;\n    default:\n      if (this.hasOwnProperty(\"handle_\"+pLoader.filetype)) {\n        this[\"handle_\"+pLoader.filetype](pLoader,pFileReader,pFileToLoad);\n      } else {\n        this.handle_data(pLoader,pFileReader,pFileToLoad);\n      }\n  }\n\n"
            },
            {
                "visibility": "public",
                "name": "handle_single_file",
                "parameter": [
                    {
                        "name": "pLoader",
                        "class": " ",
                        "comment": "the parameter provides ..."
                    }
                ],
                "return": " ",
                "comment": "the method performs ...",
                "code": "\n\n  console.log(\"CALL: handle_single_file('\"+pLoader.id+\"')\");\n  if (pLoader.dom.files) {\n    var fileToLoad = pLoader.dom.files[0]; //for input type=file\n    console.log(\"CALL: handle_single_file('\"+fileToLoad.name+\"') - pLoader.dom.files exist\");\n    if (fileToLoad) {\n      console.log(\"handle_single_file('\"+fileToLoad.name+\"') loaded.\");\n      var fileReader = new FileReader();\n      // set the onload handler\n      this.handle_file_type(pLoader,fileReader,fileToLoad);\n    } else {\n      console.error(\"ERROR: fileToLoad does not exist!\");\n    }\n  } else {\n    console.error(\"ERROR: pLoader.dom.files does not exist!\");\n  }\n\n"
            },
            {
                "visibility": "public",
                "name": "handle_multiple_files",
                "parameter": [
                    {
                        "name": "pLoader",
                        "class": " ",
                        "comment": "the parameter provides ..."
                    }
                ],
                "return": " ",
                "comment": "the method performs ...",
                "code": "\n\n  console.log(\"CALL: handle_multiple_files('\"+pLoader.id+\"')\");\n  if (pLoader.dom.files) {\n    console.log(\"CALL: handle_multiple_files('\"+pLoader.id+\"') - pLoader.dom.files exist with \"+(pLoader.dom.files.length)+\" files!\");\n    //for (var i = 0, f; f = pLoader.dom.files[i]; i++) {\n    for (var i = 0; i < pLoader.dom.files.length; i++) {\n      var fileToLoad = pLoader.dom.files[i]; //for input type=file\n      if (fileToLoad) {\n        console.log(\"handle_multiple_file('\"+fileToLoad.name+\"') loaded.\");\n        var fileReader = new FileReader();\n        // set the onload handler\n        this.handle_file_type(pLoader,fileReader,fileToLoad);\n      } else {\n        console.error(\"ERROR: fileToLoad does not exist!\");\n      }\n    }\n  } else {\n    console.error(\"ERROR: pLoader.dom.files does not exist!\");\n  }\n\n"
            },
            {
                "visibility": "public",
                "name": "handle_file",
                "parameter": [
                    {
                        "name": "pID",
                        "class": " ",
                        "comment": "the parameter provides ..."
                    }
                ],
                "return": " ",
                "comment": "the method performs ...",
                "code": "\n\n  //console.log(this.aFileHolder.var4dom + \".handle_file('\" + pID + \"')\");\n  console.log(\"handle_file() - FileHandler executed for Loader ['\" + pID + \"']\");\n  if (this.aFileLoader.hasOwnProperty(pID)) {\n    var vLoader = this.aFileLoader[pID];\n    console.log(\"handle_file() - Loader['\" + pID + \"'] with options=\" + JSON.stringify(vLoader,null,4));\n\n    if (vLoader.dom) {\n      console.log(\"handle_file() - DOM Node with ID='\" + pID + \"' exists in vLoader.dom\");\n    } else {\n      console.log(\"handle_file() - get DOM Node for ID='\" + pID + \"' with document.getElementById('\"+pID+\"')\");\n      var vNode = this.aDoc.getElementById(vLoader.id);\n      console.log(\"handle_file() - get DOM Node for Loader '\" + pID + \"' with document.getElementById('\"+vLoader.id+\"')\");\n      if (vNode) {\n        console.log(\"handle_file() - Loader Node with ID='\"+vLoader.id+\"' exists. Update FileLoader['\" + pID + \"'].dom with vNode\");\n        this.aFileLoader[pID].dom = vNode;\n      } else {\n        //--- ERROR ----\n        console.error(\"DOM node for loader does not exist - load operation cancelled\");\n        return ; // early exist of handle_file() call.\n      }\n    }\n    if (vLoader.multiple === true) {\n      console.log(\"handle_file() - Loading multiple files is allowed - apply handle_file('\" + pID + \"') to all files\");\n      this.handle_multiple_files(vLoader);\n    } else {\n      console.log(\"handle_file() - Loading single file and apply handle_file('\" + pID + \"') to file\");\n      this.handle_single_file(vLoader);\n    }\n  } else {\n    console.error(\"ERROR: Loader ['\"+pID+\"'] does not exist in this.aFileLoader\");\n  }\n"
            },
            {
                "visibility": "public",
                "name": "log",
                "parameter": [
                    {
                        "name": "pMessage",
                        "class": " ",
                        "comment": "the parameter provides ..."
                    }
                ],
                "return": " ",
                "comment": "the method performs ...",
                "code": "\n\n\n\n        //console.log(\"debug=\"+this.aOptions.debug);\n        if (this.aOptions.debug === true) {\n          console.log(pMessage);\n        }\n\n"
            },
            {
                "visibility": "public",
                "name": "set_onload",
                "parameter": [],
                "return": " ",
                "comment": "the method performs ...",
                "code": "\n  // Do not use if you import <script src=\"loadfile4dom.js\"> before <body> tag exists in DOM\n  var self = this;\n  var vBody = document.getElementsByTagName(\"body\")[0];\n\n  vBody.addEventListener(\"load\", self.create(), false);\n\n  console.log(\"LoadFile4DOM.create() call assigned to onload-handler of body-tag\");\n\n"
            }
        ]
    },
    "settings": {
        "extension4code": ".js",
        "extension4json": "_uml.json",
        "localclasslist": [
            {
                "name": "JSONEditor",
                "initvalue": "new JSONEditor()",
                "repo": "jsoneditor"
            }
        ],
        "remoteclasslist": [
            {
                "name": "LoadFile4DOM",
                "initvalue": "new LoadFile4DOM()",
                "repo": "loadfile4dom"
            },
            {
                "name": "LinkParam",
                "initvalue": "new LinkParam()",
                "repo": "linkparam"
            }
        ],
        "baseclasslist": [
            {
                "name": "Array",
                "initvalue": "[]"
            },
            {
                "name": "Boolean",
                "initvalue": "true"
            },
            {
                "name": "Float",
                "initvalue": "0.0"
            },
            {
                "name": "Function",
                "initvalue": "function my_fun() {}"
            },
            {
                "name": "Document",
                "initvalue": "document"
            },
            {
                "name": "Integer",
                "initvalue": "0"
            },
            {
                "name": "String",
                "initvalue": "\"\""
            },
            {
                "name": "Hash",
                "initvalue": "{}"
            },
            {
                "name": "Object",
                "initvalue": "null"
            },
            {
                "name": "RegularExp",
                "initvalue": "/search/g"
            }
        ]
    }
}